<?xml version="1.0" encoding="UTF-8" standalone="no"?>
<svg xmlns="http://www.w3.org/2000/svg" height="88mm" width="63mm" version="1.1" viewBox="0 0 223.22835 311.81102">
 <rect style="stroke-linejoin:round;color:#000000;stroke:#000;stroke-linecap:round;stroke-width:5;fill:#fafafa" ry="16.95" height="301.2" width="212.6" y="5.315" x="5.315"/>
 <path d="m157.1 101.4c-0.541-0.0742-1.082-0.1138-1.62-0.1138-1.808 0-3.539 0.4288-5.09 1.194l0.4602-3.208c0.0742-0.5558 0.1122-1.092 0.1122-1.629 0-5.67-4.164-10.6-9.925-11.41-0.5476-0.0775-1.092-0.1154-1.623-0.1154-5.67 0-10.6 4.166-11.41 9.93l-7.392 49.67-15.2-53.69c-1.38-5.119-6.031-8.52-11.13-8.52-0.9912 0-2.001 0.1303-3 0.4008-5.147 1.384-8.545 6.035-8.545 11.14 0 0.348 0.03628 0.7026 0.06927 1.056-1.43-0.6234-2.977-0.9962-4.583-0.9962-0.9896 0-1.999 0.127-3.003 0.3991-5.144 1.385-8.545 6.033-8.545 11.13 0 0.9879 0.127 1.994 0.3991 2.998l6.92 28.39c-1.356 0.2391-2.786 0.6828-4.326 1.384-0.79 0.3628-1.321 1.12-1.39 1.987 0 0-0.0066 0.0808-0.04618 0.3694-0.2804 2.002-2.039 11.66-11.5 23.78-0.3694 0.4717-0.5476 1.067-0.4964 1.667 0.01319 0.1023 1.229 14.94 6.135 29.99 2.462 7.529 5.832 15.12 10.61 21.01 4.735 5.86 11.14 10.08 19.16 10.08h0.04618c0.155-0.003 0.2375-0.003 0.2573-0.003h41.12c14.62 0 26.48-11.85 26.48-26.48v-33.31l6.878-54.1c0.0709-0.5195 0.1056-1.059 0.1039-1.588-0.002-5.674-4.169-10.6-9.929-11.41zm5.083 12.37-5.712 44.94-1.202 9.477v1.578l-0.003 32.05c-0.0231 11.99-9.716 21.68-21.7 21.7l-41.05 0.003c-0.1319-0.007-0.2672 0-0.3266 0-6.307-0.0198-11.26-3.15-15.5-8.321-6.327-7.732-10.38-19.9-12.69-30.08-1.166-5.09-1.916-9.681-2.377-12.99-0.2787-1.994-0.4486-3.506-0.5393-4.397 8.718-11.43 11.12-20.91 11.75-24.46 0.8791-0.3249 1.634-0.5063 2.294-0.5987 0.3529-0.0511 0.6878-0.0841 0.9813-0.0825 0.5591 0 1.018 0.0792 1.412 0.2045 0.8659 0.2837 1.506 0.7966 2.108 1.628 1.672 2.227 2.108 6.851 2.058 8.898 0 0.2441-0.0016 0.447-0.0066 0.6086-0.3991 0.8263-0.762 1.615-1.11 2.378-0.4948 1.092-0.9302 2.121-1.334 3.114-2.436 5.997-3.282 10.23-3.29 13.35-0.1188 5.312 2.904 7.456 3.635 7.616l0.2144 0.0775 5.359 1.587c0.05607 0.0181 0.1154 0.0165 0.1715 0.028 0.04453 0.01 0.09071 0.0148 0.1352 0.0214 0.1138 0.0297 0.2326 0.0313 0.3513 0.0429 0.1319 0.0148 0.2573 0.0561 0.3925 0.0462 0.7158 0.0148 4.277 0.1418 8.171 1.372 4.267 1.349 8.718 3.892 10.93 8.7 0.4041 0.8708 1.267 1.385 2.17 1.385 0.3348 0 0.6762-0.0693 0.9995-0.2194 1.199-0.5525 1.72-1.971 1.169-3.17-3.022-6.519-8.895-9.706-13.83-11.25-3.252-1.019-6.168-1.38-7.956-1.511l-1.473-8.207-0.635-3.536-1.13-6.292c-0.01979-0.1072-0.04618-0.2161-0.07917-0.3183 0.1237-0.282 0.2507-0.5657 0.3826-0.856 0.3991-0.8758 0.8131-1.766 1.273-2.705 0.1385-0.2853 0.2177-0.5805 0.2375-0.8956 0.0033-0.0429 0.03463-0.5492 0.03463-1.364-0.04618-2.456-0.1682-7.63-2.944-11.67-1.037-1.471-2.56-2.781-4.549-3.409-0.0033-0.002-0.0066-0.002-0.01154-0.003l-7.257-29.79c-0.1781-0.6465-0.249-1.23-0.249-1.808 0-2.974 1.991-5.715 5.011-6.518 0.5888-0.1616 1.174-0.2358 1.756-0.2358 2.974 0 5.711 1.991 6.52 5.009l10.46 37 4.387 15.94c0.2936 1.06 1.255 1.755 2.304 1.755 0.2095 0 0.4206-0.028 0.6317-0.0858 1.272-0.3496 2.022-1.669 1.672-2.937l-0.6795-2.471c0-0.2161-0.0165-0.4338-0.0775-0.6515h-0.003l-3.59-12.6-12.08-43.91c-0.155-0.5772-0.2293-1.161-0.2293-1.737 0-2.977 1.992-5.718 5.009-6.521 0.5904-0.16 1.173-0.2375 1.756-0.2375 2.975 0.003 5.72 1.992 6.523 5.011l17.66 62.34c0.3414 1.197 1.537 1.91 2.735 1.686 0.0346 0.008 0.0676 0.0231 0.1039 0.0264 0.1187 0.0181 0.2391 0.028 0.3546 0.028 1.166 0 2.187-0.8527 2.368-2.037l-0.003-0.003 8.721-58.6c0.4734-3.401 3.373-5.838 6.678-5.838 0.315 0 0.6317 0.0198 0.95 0.0676 3.379 0.4701 5.817 3.37 5.817 6.678 0 0.3051-0.0198 0.63-0.0676 0.9714l-1.494 10.37c-0.2507 0.7141-0.442 1.461-0.5476 2.24l-4.475 32.59-0.8956 6.205c-0.0231 0.1534-0.0264 0.3068-0.0198 0.4552l-0.6597 4.811c-0.1798 1.31 0.7339 2.514 2.042 2.693 1.305 0.1781 2.512-0.7356 2.693-2.042l1.534-11.18 4.974-34.5c1.028-2.495 3.47-4.189 6.215-4.189 0.3101 0 0.6251 0.0231 0.9467 0.0693 3.379 0.4684 5.824 3.371 5.824 6.681 0 0.3183-0.0231 0.6366-0.0676 0.9566zm-80.85 54.47 1.46 8.126-1.281-0.3777c-0.1979-0.1996-0.7521-0.8972-0.7851-3.219-0.0049-1.123 0.1567-2.612 0.6069-4.529z"/>
 <path d="m111.5 36.29c-0.00085-1.669-1.354-3.022-3.022-3.022h-26.77c-3.83 0.00086-6.935 3.105-6.936 6.937v3.74c-0.000865 0.022 0 0.0566 0 0.0838-0.0078 2.108 1.115 3.734 2.665 4.866 4.645 3.378 13.33 3.366 13.38 3.389h0.0039c0.1413 0 0.2756-0.0462 0.3871-0.1331 1.814-1.417 3.416-2.174 4.557-2.577 0.569-0.2018 1.023-0.315 1.329-0.3763 0.1529-0.0311 0.2683-0.0488 0.343-0.0601 0.07556-0.01 0.09721-0.0104 0.09721-0.0112 0.2264-0.0186 0.4264-0.1586 0.521-0.3668 0.2791-0.6195 0.4182-1.175 0.4182-1.686 0.0121-0.8662-0.4428-1.557-1.005-1.94-1.058-0.7271-2.412-0.7586-3.055-0.7707-0.2156 0-0.3504 0.009-0.362 0.0104-0.07949 0.005-0.1594 0.0268-0.2303 0.0622-2.332 1.143-3.74 1.434-4.502 1.431-0.4999-0.002-0.7146-0.1132-0.8014-0.1711-0.0082-0.005-0.01469-0.01-0.02074-0.0151l-0.2748-1.692h18.79c1.669-0.00087 3.022-1.354 3.022-3.023-0.005-0.6692-0.216-1.314-0.5845-1.844 1.156-0.4242 1.983-1.527 1.984-2.831zm-2.392 1.652h-13.11c-0.3465 0-0.626 0.2804-0.626 0.6264s0.2795 0.626 0.626 0.626h11.68c0.6286 0.2411 1.147 1.007 1.137 1.769-0.002 0.9777-0.7932 1.769-1.77 1.77h-19.59c-0.1836 0-0.3581 0.0812-0.477 0.2208-0.1188 0.1395-0.1706 0.324-0.1413 0.5059l0.4165 2.57 0.03715 0.1322c0.04148 0.1914 0.6031 0.9872 1.998 0.9552 1.047-0.003 2.568-0.3599 4.934-1.501 0.04234-0.001 0.09591-0.002 0.1598-0.002 0.5361-0.0121 1.746 0.0998 2.331 0.5396 0.3106 0.2363 0.467 0.4536 0.4783 0.9189 0 0.2195-0.04838 0.5046-0.1797 0.8589-0.9319 0.1655-3.423 0.798-6.427 3.096-0.3525-0.01-1.123-0.0389-2.147-0.1296-2.135-0.1879-5.346-0.6532-7.952-1.733-1.303-0.5378-2.448-1.227-3.241-2.072-0.7919-0.8494-1.249-1.82-1.253-3.064v-3.824c0.0056-3.14 2.546-5.679 5.684-5.685h8.456c0.003 0 0.0052 0.000859 0.0082 0.000859h18.24c0.9768 0.000861 1.768 0.7923 1.77 1.77 0.00087 0.7543-0.4739 1.398-1.14 1.652z"/>
 <path style="stroke-width:.4046" d="m148.4 48.24v-15.82c0-1.562-1.266-2.83-2.829-2.83-0.5745 0.0004-1.103 0.1776-1.549 0.4705v-1.799c0-1.563-1.267-2.83-2.83-2.83-0.6178 0.000409-1.189 0.2003-1.654 0.5368-0.3326-1.193-1.424-2.069-2.723-2.069-1.562 0.0004-2.828 1.267-2.829 2.831v0.4859c-0.4458-0.2933-0.9742-0.4701-1.547-0.4709-1.563 0.00081-2.83 1.267-2.831 2.83v8.906c-0.3633-0.5142-1.001-0.9248-1.797-0.9143-0.4794 0.00081-1.001 0.1303-1.581 0.3944-0.1938 0.0882-0.3241 0.2739-0.341 0.4867 0 0-0.002 0.0202-0.0113 0.0906-0.0688 0.4911-0.5 2.861-2.821 5.833-0.0914 0.1165-0.1347 0.2622-0.1226 0.4098 0.003 0.0255 0.3014 3.666 1.505 7.357 0.6044 1.846 1.431 3.71 2.604 5.154 1.162 1.436 2.733 2.473 4.701 2.473h0.0117c0.038-0.00081 0.0582-0.00081 0.0639-0.00081l10.08 0.00081c3.588-0.00081 6.496-2.908 6.496-6.495v-5.04c0-0.003 0.00081-0.005 0.00081-0.008zm-18.8-4.8v3.64l-0.4733-0.1404c-0.049-0.0489-0.1845-0.2193-0.1938-0.7897-0.002-0.5304 0.1489-1.397 0.6671-2.704zm12.3 15.15s-10.13 0.0008-10.15 0.0008c-1.547-0.006-2.762-0.7735-3.803-2.042-1.552-1.897-2.546-4.882-3.114-7.378-0.286-1.249-0.4701-2.376-0.5834-3.188-0.068-0.4875-0.1092-0.8581-0.1319-1.077 2.14-2.804 2.728-5.128 2.882-5.999 0.3309-0.123 0.5984-0.1683 0.8047-0.1675 0.4353 0.0101 0.6392 0.1578 0.8609 0.4491 0.4106 0.547 0.5162 1.681 0.5049 2.183 0 0.0603-0.00081 0.1108-0.002 0.1501-1.07 2.215-1.404 3.639-1.407 4.62-0.0291 1.306 0.7157 1.831 0.8949 1.87l1.365 0.4082c0.091 0.0267 0.4794 0.0546 0.4794 0.0546s0.2084 0.006 0.5704 0.0562c1.111 0.146 3.357 0.7412 4.166 2.557 0.0987 0.2144 0.3115 0.3414 0.5324 0.3414 0.0825 0 0.1655-0.0174 0.2448-0.055 0.2941-0.1351 0.4228-0.483 0.2872-0.7772-0.7581-1.634-2.239-2.446-3.466-2.855-0.8957-0.2965-1.681-0.3932-2.061-0.424v-17.73c0.002-0.9155 0.7424-1.655 1.657-1.657 0.7064-0.002 1.31 0.4434 1.548 1.067 0 0-0.0004 12.89-0.0004 12.9-0.00094 0.3245 0.2589 0.5878 0.5826 0.5895 0.3236 0.002 0.5882-0.2593 0.5898-0.5834v-15.17c0.002-0.9163 0.7424-1.656 1.657-1.658 0.9155 0.002 1.656 0.7416 1.658 1.658v16.03c0 0.3232 0.2626 0.5862 0.5862 0.5862 0.3241 0 0.5866-0.263 0.5866-0.5862h-0.0008v-15.09c0.2387-0.6242 0.8399-1.068 1.547-1.068 0.9159 0.002 1.656 0.7424 1.658 1.657v15.11c0 0.3232 0.2622 0.5866 0.5862 0.5866 0.3241 0 0.587-0.2634 0.587-0.5866h-0.00081v-11.54c0.2395-0.623 0.8415-1.067 1.549-1.066 0.9151 0.002 1.655 0.742 1.656 1.658v20.85c-0.005 2.939-2.383 5.317-5.323 5.323z"/>
 <path d="m146 266.3c-0.133-0.019-0.2647-0.029-0.396-0.029-0.4351 0.0004-0.8513 0.1043-1.225 0.2864 0-0.01 0.002-0.014 0.002-0.021 0-1.385-1.018-2.588-2.426-2.788-0.1314-0.018-0.2623-0.027-0.3944-0.027-0.45 0.0004-0.8775 0.1124-1.261 0.3054l1.201-9.219c0.0181-0.1277 0.0263-0.2603 0.0263-0.3896 0-1.385-1.018-2.588-2.426-2.788-0.1309-0.0181-0.2623-0.0278-0.3936-0.0278-1.385 0-2.591 1.017-2.788 2.429l-2.014 13.4-3.506-12.85c-0.3372-1.258-1.475-2.089-2.721-2.089-0.2409 0-0.4867 0.031-0.7312 0.0967-1.257 0.3392-2.088 1.475-2.087 2.721 0 0.2413 0.0314 0.4871 0.0971 0.7316l2.355 9.767c-0.2393 0.042-0.4891 0.1112-0.7518 0.2119-0.104 0.039-0.2075 0.079-0.315 0.1281-0.193 0.089-0.3227 0.2728-0.3396 0.4847 0 0-0.002 0.021-0.0113 0.091-0.0685 0.4883-0.4988 2.849-2.81 5.808v0.0008c-0.0427 0.055-0.0737 0.1173-0.0943 0.1821-0.00094 0-0.004 0.01-0.006 0.014-0.0181 0.063-0.0246 0.1294-0.0206 0.197 0 0.01-0.002 0.01-0.002 0.014 0.003 0.025 0.3002 3.651 1.499 7.326 0.6019 1.839 1.425 3.695 2.593 5.134 1.158 1.432 2.723 2.464 4.685 2.464h0.009c0.0322-0.0008 0.0556-0.0008 0.0717-0.0008l10.03 0.0008c3.573-0.0008 6.47-2.898 6.47-6.471l0.0749-11.91c0.0181-0.1338 0.0274-0.2655 0.0266-0.3949-0.00081-1.384-1.019-2.586-2.425-2.786zm-4.442-1.41h0.002c0.0757 0 0.1535 0 0.2321 0.017 0.8239 0.114 1.42 0.8239 1.42 1.631 0 0.079-0.006 0.1559-0.0157 0.2333l-0.1676 1.193-0.6624 4.711-0.0803 0.5749-0.1362 0.9678c-0.002 0.012-0.006 0.023-0.008 0.034-0.1305 0.805-0.8291 1.386-1.623 1.385-0.0778 0-0.1559 0-0.2321-0.014-0.7224-0.1011-1.267-0.6575-1.393-1.337-0.0008 0-0.002-0.01-0.004-0.016-0.0165-0.094-0.0246-0.1873-0.0246-0.2844 0-0.074 0.005-0.1483 0.0157-0.226l0.3598-2.558 0.454-3.232 0.2337-1.659c0.0222-0.1583 0.0693-0.3062 0.1313-0.4448 0.006-0.015 0.0105-0.032 0.0181-0.046 0.2699-0.5576 0.8469-0.9295 1.479-0.9295zm-12.42 10.19c-0.006-0.01-0.0137-0.014-0.0219-0.025-0.0214-0.027-0.0487-0.072-0.0756-0.1398-0.004-0.012-0.009-0.023-0.0141-0.036-0.0004-0.00079-0.00081 0-0.00094 0-0.0403-0.1204-0.0753-0.303-0.0794-0.583 0-0.033 0.002-0.071 0.003-0.1055 0.00094-0.042 0.002-0.084 0.005-0.1301 0.002-0.038 0.008-0.08 0.0117-0.1209 0.005-0.054 0.0109-0.1084 0.0185-0.166 0.006-0.043 0.0141-0.092 0.0217-0.1386 0.0101-0.062 0.0214-0.1253 0.0342-0.1922 0.0101-0.051 0.0214-0.1035 0.033-0.1575 0.006-0.027 0.0141-0.058 0.0206-0.087l0.3545 1.975-0.3106-0.09zm18.02 6.31c-0.004 2.928-2.374 5.297-5.301 5.303h-10.03c-0.0298 0-0.0588 0.0009-0.0798 0.0009-1.541 0-2.752-0.7704-3.788-2.033-1.545-1.889-2.535-4.862-3.1-7.349-0.2848-1.244-0.469-2.365-0.581-3.175-0.0677-0.4863-0.1088-0.8554-0.1313-1.072 0.0375-0.05 0.0709-0.097 0.108-0.1463 0.0765-0.1019 0.1523-0.2046 0.2248-0.3054 0.0512-0.072 0.0999-0.1414 0.1491-0.2115 0.0701-0.1011 0.1406-0.2014 0.2071-0.3009 0.0447-0.068 0.0878-0.1346 0.1314-0.2015 0.0649-0.1 0.1297-0.199 0.1906-0.2969 0.0395-0.064 0.0765-0.1261 0.1144-0.1898 0.0592-0.099 0.1193-0.1966 0.1748-0.2937 0.0342-0.059 0.0665-0.1172 0.0991-0.176 0.0547-0.098 0.1092-0.1954 0.16-0.2905 0.029-0.056 0.056-0.1076 0.0838-0.1612 0.05-0.096 0.0999-0.1926 0.1458-0.2856 0.0254-0.05 0.0471-0.098 0.0709-0.1467 0.0451-0.094 0.0907-0.1889 0.1321-0.2796 0.0201-0.044 0.0383-0.087 0.0584-0.1313 0.0407-0.093 0.0819-0.1849 0.1189-0.274 0.0165-0.039 0.031-0.077 0.0467-0.1152 0.0366-0.091 0.0737-0.1805 0.1068-0.2667 0.0129-0.033 0.0242-0.066 0.0363-0.099 0.033-0.088 0.0657-0.1757 0.0947-0.2591 0.009-0.027 0.0177-0.053 0.0274-0.08 0.029-0.085 0.058-0.17 0.0834-0.2506 0.008-0.023 0.0133-0.044 0.0206-0.067 0.0254-0.081 0.05-0.1611 0.0717-0.2365 0.005-0.018 0.009-0.033 0.0141-0.051 0.0216-0.077 0.0423-0.1523 0.0604-0.2228 0.004-0.018 0.008-0.033 0.0121-0.05 0.0169-0.067 0.0334-0.1329 0.0471-0.1934 0.006-0.027 0.0109-0.05 0.0165-0.075 0.0101-0.046 0.0209-0.094 0.0294-0.1353 0.0133-0.066 0.0246-0.1265 0.0346-0.1809 0.2111-0.079 0.394-0.1229 0.5536-0.1463 0.004-0.0004 0.009-0.0008 0.0137 0 0.0838-0.012 0.1636-0.019 0.2333-0.019 0.1366 0 0.2478 0.019 0.3441 0.05 0.1499 0.05 0.2703 0.1277 0.3795 0.2393 0.0459 0.047 0.0902 0.098 0.1334 0.1576 0.1177 0.1567 0.2079 0.3642 0.28 0.5886 0.1781 0.5568 0.2325 1.231 0.224 1.587 0 0.06-0.00082 0.1091-0.002 0.1482-0.031 0.064-0.0568 0.1225-0.0862 0.1845-0.0628 0.1334-0.1261 0.2676-0.1845 0.3945-0.1208 0.2675-0.2268 0.5181-0.3259 0.761-0.5951 1.465-0.8009 2.499-0.803 3.26-0.003 0.1354 0.007 0.2578 0.0189 0.3767 0.0894 0.8807 0.55 1.321 0.7788 1.448 0.0375 0.02 0.0681 0.032 0.0906 0.038l0.0189 0.01 0.0334 0.012 1.114 0.3291 0.1938 0.058c0.052 0.016 0.1052 0.023 0.1583 0.024 0.003 0 0.006 0.0008 0.008 0.0008h0.0306c0.0206-0.00093 0.0411 0 0.0607-0.01 0.1789 0 1.018 0.04 1.947 0.33 1.055 0.33 2.17 0.9585 2.717 2.15 0.0983 0.2144 0.3098 0.3409 0.531 0.3409 0.0814 0 0.164-0.017 0.2434-0.054 0.2937-0.1354 0.4206-0.4815 0.2856-0.7744-0.7486-1.616-2.213-2.398-3.43-2.776-0.7735-0.2401-1.469-0.3287-1.896-0.3626l-0.3562-1.985-0.1551-0.8646-0.3626-1.452c0.0528-0.1233 0.1023-0.2425 0.162-0.3735 0.0923-0.2022 0.1898-0.4117 0.2961-0.6297h0.00094c0.004-0.01 0.009-0.018 0.0133-0.027 0.0339-0.071 0.0524-0.1406 0.058-0.218 0.00042-0.01 0.005-0.079 0.007-0.1982 0.00081-0.039 0.00093-0.085 0.00093-0.1342-0.002-0.1128-0.006-0.2546-0.0141-0.4081-0.004-0.07-0.008-0.1398-0.0137-0.2163-0.006-0.081-0.0137-0.1652-0.0238-0.2522-0.0681-0.6096-0.2361-1.347-0.6668-1.974-0.0778-0.1104-0.1708-0.2147-0.2711-0.3142-0.2236-0.2224-0.4992-0.4094-0.8316-0.5165l-2.439-10.11c-0.0419-0.1591-0.0608-0.3014-0.0608-0.4432 0.00079-0.7276 0.4871-1.397 1.224-1.593 0.1426-0.0395 0.2853-0.0568 0.4267-0.0568 0.7284 0 1.398 0.4863 1.595 1.225l3.833 14.04 0.2623 0.9617c0.0165 0.06 0.0439 0.114 0.0765 0.164 0.1265 0.193 0.3582 0.2969 0.5934 0.2534 0.008 0 0.0161 0 0.0246 0.01 0.3191 0.047 0.616-0.1724 0.6644-0.4907l0.052-0.3473 0.2055-1.368 2.091-13.91c0.1148-0.8312 0.8251-1.427 1.633-1.427 0.0757 0 0.1527 0.006 0.2313 0.0161 0.8247 0.1156 1.421 0.8247 1.421 1.632-0.0008 0.0782-0.006 0.1563-0.0165 0.2329l-2.618 18.94c-0.0181 0.1297-0.027 0.2607-0.0263 0.39-0.00079 0.1627 0.0133 0.3259 0.0411 0.4843 0.2014 1.174 1.142 2.134 2.385 2.309 0.1326 0.018 0.2655 0.027 0.3944 0.027 1.195 0 2.252-0.7603 2.649-1.872 0.4069 0.3763 0.9246 0.6402 1.515 0.7236 0.1277 0.019 0.255 0.027 0.3779 0.027h0.0173c0.8134 0 1.556-0.3566 2.076-0.9307v6.639h0.00093zm0.0858-12.07-0.0983 0.6994-0.056 0.3985-0.2732 1.941-0.1039 0.7397c-0.0133 0.1023-0.0387 0.2022-0.0729 0.303-0.2252 0.6615-0.8578 1.118-1.558 1.117-0.0786 0-0.1563 0-0.2329-0.016-0.701-0.098-1.232-0.6265-1.376-1.278-0.004-0.019-0.0109-0.036-0.0141-0.055-0.002-0.01-0.004-0.011-0.005-0.017-0.0181-0.097-0.0254-0.193-0.0254-0.2897 0-0.072 0.005-0.1458 0.0157-0.224l0.3408-2.421 0.191-1.359c0.0141-0.1047 0.0403-0.2099 0.0757-0.3094 0.0205-0.061 0.0463-0.1213 0.0749-0.1805 0.0117-0.023 0.0258-0.043 0.0391-0.066 0.2824-0.5213 0.8312-0.8646 1.437-0.8646h0.005c0.0757 0 0.1535 0 0.2321 0.016h0.0008c0.8231 0.1153 1.42 0.8243 1.42 1.631-0.00041 0.079-0.006 0.1567-0.0161 0.2341z"/>
 <path style="stroke-width:.5115" d="m109.2 260c-0.00094-1.978-1.603-3.58-3.579-3.58-0.7402 0.00051-1.422 0.2322-1.992 0.6164-0.2312-1.753-1.727-3.106-3.544-3.107-0.7821 0.00051-1.503 0.2537-2.092 0.6793-0.4205-1.508-1.801-2.616-3.443-2.616-1.709 0.00093-3.135 1.197-3.491 2.802-0.03069 0.1836-0.01535 0.1437-0.02251 0.2261-0.0056 0.1903-0.0097 0.6123-0.01176 1.197-0.5734-0.3913-1.262-0.6272-2.009-0.6276-1.71 0.002-3.135 1.199-3.491 2.801l-0.01739 0.1601v2.197c-0.4573-0.6506-1.264-1.175-2.273-1.162-0.6062 0-1.266 0.1647-1.999 0.4983-0.245 0.1125-0.4103 0.3468-0.4317 0.6154 0 0-0.001 0.027-0.0133 0.1156-0.08747 0.6205-0.6338 3.619-3.568 7.376-0.1156 0.1473-0.1703 0.3314-0.155 0.5176 0.0041 0.032 0.3816 4.6 1.904 9.233 0.7642 2.318 1.81 4.658 3.293 6.47 1.472 1.808 3.464 3.108 5.957 3.104 0.04809-0.00094 0.07366-0.00094 0.08185-0.00094h0.1928c0.4814 0.089 0.9781 0.1376 1.487 0.1366l11.07 0.00051c4.535 0 8.213-3.677 8.213-8.215zm-5.535-0.7345c0.2987-0.7934 1.058-1.363 1.956-1.363v0.00093c1.157 0.002 2.093 0.9382 2.095 2.097v4.843c0 0.131-0.0138 0.2619-0.0379 0.3944v0.00094c-0.1847 0.9653-1.035 1.7-2.057 1.698-0.5924 0.0005-1.125-0.2465-1.505-0.6425-0.1668-0.1734-0.3008-0.3765-0.4005-0.599-0.0174-0.04-0.0343-0.08-0.0501-0.1212-0.0107-0.029-0.0271-0.057-0.0358-0.087v-0.00094c-0.068-0.2067-0.1033-0.4205-0.1044-0.6435l0.00093-4.843c-0.00093-0.1324 0.0142-0.269 0.0394-0.4066 0.0148-0.078 0.0367-0.1571 0.0639-0.241 0.008-0.0297 0.0246-0.0568 0.0353-0.087zm-3.584-3.852h0.005c1.157 0.002 2.094 0.9392 2.096 2.096v9.547c-0.002 0.7234-0.3678 1.36-0.9254 1.737-0.3335 0.2251-0.7371 0.3576-1.171 0.3586-0.7075 0.00094-1.332-0.3519-1.712-0.8906-0.1079-0.1545-0.1949-0.3253-0.2588-0.5064-0.0075-0.019-0.01687-0.037-0.024-0.057-0.06497-0.2025-0.1008-0.4174-0.1018-0.6404l0.000938-9.548c0-0.2256 0.03581-0.4399 0.1018-0.6471 0.0084-0.022 0.01894-0.043 0.02709-0.065 0.2911-0.8041 1.057-1.385 1.961-1.385zm-7.566-0.1504c0.002-0.0854 0.0031-0.1524 0.0041-0.1954v-0.003c0.2276-0.9116 1.052-1.59 2.032-1.589 1.157 0.002 2.093 0.9371 2.096 2.093 0 0.0323-0.024 11.89-0.01791 12.08 0.0019 0.091 0.0047 0.1658 0.0094 0.2292 0.0037 0.027 0.0047 0.043 0.0066 0.06-0.000937 0.013-0.0037 0.025-0.0047 0.039-0.0037 0.086-0.01481 0.1699-0.02916 0.2538-0.0061 0.039-0.0082 0.08-0.01687 0.1181-0.02097 0.096-0.0532 0.1852-0.08799 0.2752-0.01381 0.036-0.02303 0.075-0.03785 0.111-0.03785 0.085-0.08594 0.1627-0.135 0.242-0.02097 0.035-0.03785 0.074-0.06087 0.1069-0.05013 0.072-0.109 0.1361-0.1668 0.2005-0.0312 0.033-0.05678 0.072-0.09003 0.1034-0.05883 0.057-0.1258 0.1053-0.1908 0.156-0.0399 0.031-0.07571 0.066-0.1171 0.094-0.06701 0.044-0.1396 0.077-0.2118 0.1141-0.0486 0.024-0.09259 0.053-0.1407 0.075-0.07673 0.032-0.1606 0.052-0.2425 0.075-0.04911 0.013-0.09566 0.033-0.1453 0.044-0.1248 0.025-0.2547 0.037-0.3867 0.039h-0.02813c-0.07775-0.0004-0.1524-0.015-0.2276-0.024-1.031-0.116-1.79-0.9697-1.799-2.071-0.001-0.014-0.01228-12.45-0.01023-12.63zm-5.525 3.379c0.2348-0.9003 1.052-1.57 2.026-1.568 0.8937-0.00094 1.654 0.5601 1.957 1.347v7.983c-0.01586 0.042-0.03274 0.083-0.05168 0.1243-0.01995 0.044-0.03939 0.089-0.06241 0.132-0.0266 0.051-0.0578 0.098-0.0885 0.1453-0.02762 0.042-0.0532 0.085-0.08389 0.1243-0.03274 0.044-0.07008 0.085-0.1064 0.1258-0.03376 0.038-0.06599 0.077-0.1023 0.1136-0.03939 0.038-0.08236 0.073-0.1243 0.1084-0.03888 0.032-0.07622 0.067-0.1177 0.096-0.04553 0.032-0.09463 0.06-0.1427 0.089-0.04246 0.027-0.08389 0.054-0.1284 0.077-0.05218 0.027-0.1079 0.048-0.1632 0.07-0.04399 0.018-0.08696 0.039-0.133 0.053-0.06343 0.021-0.1299 0.034-0.1959 0.05-0.04041 0.01-0.0798 0.022-0.1212 0.029-0.1033 0.017-0.2097 0.025-0.3177 0.026h-0.01689c-0.1238 0-0.245-0.011-0.3622-0.032-0.03581-0.01-0.06906-0.019-0.1044-0.027-0.08031-0.018-0.1601-0.036-0.2368-0.063-0.04399-0.015-0.08543-0.038-0.1284-0.056-0.06292-0.029-0.1274-0.053-0.1867-0.087-0.04604-0.026-0.08696-0.058-0.131-0.087-0.05168-0.034-0.1054-0.066-0.1535-0.1048-0.04298-0.034-0.08133-0.075-0.1217-0.1136-0.04246-0.039-0.08696-0.078-0.1269-0.1212-0.03836-0.043-0.07059-0.09-0.1054-0.1351-0.03478-0.045-0.07162-0.089-0.1028-0.1386-0.0312-0.05-0.05627-0.1008-0.08338-0.1524-0.0266-0.051-0.05525-0.1-0.07878-0.153-0.02251-0.053-0.03939-0.1105-0.0578-0.1657-0.01637-0.049-0.03376-0.097-0.04655-0.1478v-7.542zm-1.482 8.369v4.595l-0.598-0.177c-0.06241-0.062-0.2338-0.2793-0.2445-0.9996-0.0031-0.6701 0.1872-1.765 0.8425-3.419zm22.28 12.43c-0.006 3.718-3.015 6.725-6.73 6.731h-11.16c-0.4348 0-0.8594-0.041-1.272-0.1218l-0.1315-0.012h-0.3565c-1.959-0.01-3.495-0.9699-4.811-2.562-1.962-2.378-3.219-6.124-3.935-9.256-0.3611-1.566-0.5949-2.98-0.7376-3.997-0.08543-0.6108-0.1381-1.076-0.1663-1.35 2.705-3.548 3.45-6.486 3.645-7.587 0.4184-0.155 0.7566-0.2128 1.017-0.2128 0.5509 0.014 0.8082 0.2015 1.089 0.5693 0.5192 0.6911 0.6537 2.126 0.6389 2.761 0 0.077-0.000512 0.1396-0.002 0.1903-1.353 2.799-1.776 4.601-1.78 5.839-0.03682 1.652 0.9059 2.316 1.133 2.366l1.725 0.5146c0.1095 0.032 1.622 0.068 2.798 0.4368 1.341 0.419 2.756 1.217 3.451 2.731 0.1243 0.2696 0.3934 0.4308 0.6727 0.4308 0.1044 0 0.2092-0.022 0.3095-0.069 0.3719-0.1719 0.5335-0.6108 0.3627-0.9832-0.9504-2.053-2.809-3.044-4.355-3.525-0.9141-0.2839-1.74-0.4016-2.288-0.4507v-3.259c0.04911 0.033 0.1033 0.059 0.154 0.091 0.06394 0.04 0.1284 0.078 0.1954 0.114 0.1033 0.055 0.2113 0.1029 0.3202 0.1479 0.06701 0.029 0.1325 0.057 0.201 0.081 0.1253 0.042 0.2553 0.075 0.3862 0.1028 0.0578 0.013 0.1141 0.031 0.1734 0.041 0.1939 0.032 0.3918 0.052 0.5949 0.053h0.04092c0.1801 0 0.3576-0.016 0.5305-0.044 0.05832-0.01 0.1136-0.028 0.1709-0.04 0.1253-0.027 0.2507-0.053 0.3709-0.093 0.06599-0.021 0.1274-0.053 0.1918-0.077 0.1064-0.041 0.2128-0.082 0.3136-0.1335 0.06599-0.033 0.1274-0.075 0.1913-0.1125 0.07469-0.045 0.1524-0.082 0.2235-0.1315 0.288 1.386 1.379 2.476 2.764 2.768 0.0092 0 0.01841 0 0.02762 0.01 0.1018 0.022 0.2056 0.036 0.311 0.049 0.01381 0 0.02865 0 0.04296 0.01 0.1171 0.011 0.2363 0.019 0.3571 0.019h0.02916c0.1376 0 0.2716-0.011 0.4051-0.028 0.04655-0.01 0.09156-0.013 0.1376-0.021 0.1023-0.016 0.2036-0.037 0.3028-0.062 0.04195-0.011 0.08389-0.019 0.1248-0.032 0.134-0.038 0.2655-0.083 0.3924-0.1371 0.01637-0.01 0.0312-0.015 0.04706-0.022 0.1141-0.05 0.223-0.1059 0.3299-0.1668 0.03478-0.02 0.07059-0.041 0.1038-0.062 0.09361-0.057 0.1816-0.1176 0.2686-0.1826 0.02606-0.019 0.05222-0.038 0.07725-0.057 0.1105-0.087 0.2148-0.1805 0.3136-0.2793 0.01181-0.011 0.021-0.023 0.03225-0.034 0.087-0.09 0.1688-0.1837 0.246-0.2829 0.021-0.027 0.04087-0.053 0.06084-0.081 0.07209-0.096 0.1386-0.197 0.201-0.3008 0.0084-0.013 0.01791-0.025 0.02662-0.039 0.09206 0.086 0.1888 0.1647 0.288 0.2414 0.021 0.014 0.04191 0.029 0.06291 0.043 0.1299 0.094 0.2665 0.1806 0.4077 0.2553 0.0108 0.01 0.0189 0.011 0.0287 0.016 0.1478 0.077 0.3028 0.1401 0.4599 0.1969 0.0296 0.011 0.0578 0.021 0.088 0.031 0.1555 0.051 0.3156 0.092 0.4798 0.1197 0.0317 0.01 0.0629 0.01 0.0946 0.013 0.1673 0.025 0.3381 0.041 0.5136 0.042h0.088c0.089 0 0.178-0.01 0.265-0.013 0.0471-0.01 0.0936-0.012 0.1391-0.019 0.0655-0.01 0.1315-0.017 0.1954-0.03 0.0491-0.01 0.0972-0.021 0.1468-0.032 0.0583-0.014 0.1182-0.029 0.178-0.045 0.0491-0.014 0.0962-0.031 0.1437-0.046 0.0573-0.019 0.1141-0.04 0.1709-0.062 0.046-0.018 0.0911-0.037 0.1361-0.057 0.0568-0.026 0.1125-0.053 0.1668-0.08 0.0419-0.021 0.0849-0.043 0.1258-0.066 0.0573-0.032 0.1141-0.067 0.1698-0.1028 0.0343-0.022 0.0721-0.043 0.1059-0.067 0.0803-0.055 0.1601-0.1146 0.2358-0.1765 0.024-0.019 0.0471-0.04 0.0711-0.06 0.0629-0.055 0.1258-0.111 0.1857-0.1698 0.0302-0.029 0.0578-0.061 0.087-0.093 0.045-0.048 0.09-0.095 0.132-0.1442 0.0307-0.035 0.0588-0.073 0.088-0.1095 0.0367-0.049 0.0747-0.097 0.1105-0.1468 0.0271-0.039 0.0532-0.08 0.0793-0.1202 0.0327-0.052 0.065-0.1018 0.0956-0.155 0.0241-0.042 0.0481-0.084 0.0701-0.1274 0.0292-0.054 0.0547-0.1105 0.0808-0.1673 0.0199-0.042 0.0399-0.085 0.0578-0.1294 0.0251-0.062 0.0481-0.1263 0.0701-0.1903 0.0123-0.04 0.0292-0.079 0.0409-0.1197 0.0322-0.1023 0.0588-0.2066 0.0808-0.313 0.0721 0.05 0.1509 0.088 0.2251 0.1324 0.0629 0.037 0.1238 0.077 0.1888 0.111 0.0992 0.051 0.2051 0.091 0.311 0.133 0.065 0.026 0.1268 0.055 0.1944 0.078 0.1171 0.038 0.242 0.064 0.3658 0.091 0.0583 0.012 0.1161 0.032 0.176 0.041 0.1857 0.03 0.3755 0.047 0.5704 0.047 0.1929 0 0.3806-0.018 0.5647-0.048 0.0159 0 0.0317 0 0.0466-0.01 0.176-0.031 0.3458-0.075 0.5105-0.1299 0.022-0.01 0.044-0.012 0.065-0.021 0.1601-0.055 0.3131-0.1243 0.4619-0.2015 0.023-0.012 0.046-0.024 0.068-0.036 0.1458-0.08 0.2854-0.1699 0.4174-0.2681 0.009-0.01 0.021-0.012 0.0302-0.02v11.75h-0.00094z"/>
 <path d="m203.6 99.23 12.17 3.261q-5.321 5.562-30.73 24.48-12.2-27.6-16-37.08l13.18 3.533q9.936-16.02-3.322-47.68 31.57 18.76 24.7 53.47z"/>
 <path d="m203.6 230.5 12.17 3.261q-5.321 5.562-30.73 24.48-12.13-27.58-16-37.05l13.18 3.533q9.936-16.02-3.322-47.68 31.57 18.76 24.7 53.47z"/>
</svg>
